{
    "User1": {
        "password": "03ac674216f3e15c761ee1a5e255f067953623c8b388b4459e13f978d7c846f4",
        "color": "#ffff00"
    },
    "User2": {
        "password": "03ac674216f3e15c761ee1a5e255f067953623c8b388b4459e13f978d7c846f4",
        "color": "#00ff80"
    }
}
